{
    "name": "guia-hoteles",
    "version": "1.0.0",
    "description": "nuestro primer proyecto de nodejs",
    "main": "index.html",
    "scripts": {
        "test": "echo \"Error: no test specified\" && exit 1",
        "dev": "lite-server",
        "start": "concurrently \"npm run watch:scss\" \"npm run dev\"",
        "scss": "node-sass -o css/ css/",
        "watch:scss": "onchange \"css/*.scss\" -- npm run scss",
        "clean": "rimraf dist",
        "imagemin": "imagemin img/* --out-dir dist/img"

    },
    "repository": {
        "type": "git",
        "url": "git+https://jaspermil@bitbucket.org/jaspermil/guia-hoteles.git"
    },
    "author": "Milton Rivera G",
    "license": "ISC",
    "homepage": "https://bitbucket.org/jaspermil/guia-hoteles#readme",
    "devDependencies": {
        "copyfiles": "^2.3.0",
        "lite-server": "^2.5.4",
        "node-sass": "^4.14.1",
        "onchange": "^7.0.2",
        "rimraf": "^3.0.2"
    },
    "dependencies": {
        "animate.css": "^4.1.0",
        "awesome": "0.0.7",
        "bootstrap": "^4.5.2",
        "concurrently": "^5.3.0",
        "font": "0.0.4",
        "imagemin": "^7.0.1",
        "jquery": "^3.5.1",
        "open-iconic": "^1.1.1",
        "popper.js": "^1.16.1",
        "sweetalert2": "^10.0.2"
    }
}